<svg width="160" height="83" viewBox="0 0 160 83" fill="none" xmlns="http://www.w3.org/2000/svg">
<g clip-path="url(#clip0_120_62)">
<path d="M8.62158 17.3398C6.32217 17.3398 4.11694 16.4264 2.49102 14.8005C0.865095 13.1746 -0.0483398 10.9693 -0.0483398 8.66993C-0.0483398 6.37052 0.865095 4.1653 2.49102 2.53937C4.11694 0.913446 6.32217 1.12724e-05 8.62158 1.12724e-05C9.75902 -0.00182797 10.8856 0.221423 11.9364 0.656903C12.9871 1.09238 13.9414 1.73148 14.7441 2.53738C15.5467 3.34328 16.182 4.30004 16.6133 5.35255C17.0446 6.40506 17.2634 7.5325 17.257 8.66993C17.2708 9.8094 17.0571 10.9402 16.6285 11.996C16.1998 13.0519 15.5648 14.0116 14.7606 14.819C13.9565 15.6264 12.9993 16.2652 11.9451 16.6981C10.891 17.1309 9.76109 17.3491 8.62158 17.3398ZM1.09753 71.9479V23.9803H16.1456V71.9479H1.09753Z" fill="#EA0029"/>
<path d="M57.7005 36.8885C56.4429 36.5491 55.1442 36.3865 53.8418 36.4054C45.7725 36.4054 43.1149 43.3082 43.1149 47.2911V71.9479H28.0668V23.9803H42.5627V30.8831H42.749C45.0408 26.0512 49.5345 22.5998 55.1327 22.5998C56.2164 22.5567 57.3 22.6872 58.3425 22.9863L57.7005 36.8885Z" fill="#010101"/>
<path d="M72.0997 17.3398C69.8003 17.3398 67.5951 16.4264 65.9692 14.8005C64.3432 13.1745 63.4298 10.9693 63.4298 8.66992C63.4298 6.37051 64.3432 4.16528 65.9692 2.53936C67.5951 0.913435 69.8003 1.06338e-09 72.0997 1.06338e-09C73.236 -1.78445e-05 74.3611 0.224577 75.4103 0.660872C76.4595 1.09717 77.412 1.73655 78.2133 2.54227C79.0145 3.34798 79.6485 4.30413 80.079 5.35573C80.5094 6.40734 80.7277 7.53365 80.7213 8.66992C80.7351 9.80822 80.5219 10.9378 80.0941 11.9928C79.6663 13.0477 79.0325 14.0068 78.2298 14.814C77.4271 15.6212 76.4716 16.2604 75.419 16.694C74.3665 17.1277 73.2381 17.3473 72.0997 17.3398ZM64.5757 71.9479V23.9803H79.6238V71.9479H64.5757Z" fill="#010101"/>
<path d="M118.424 38.1449C116.036 35.7358 112.557 33.8099 108.885 33.8099C106.041 33.8099 103.197 34.866 103.197 37.6617C103.197 40.3538 105.675 41.1131 111.542 42.4936C118.514 44.1365 126.128 47.795 126.128 57.1345C126.128 69.2696 115.946 73.5079 106.593 73.5079C99.1588 73.5079 91.4553 70.9125 86.6854 66.0943L95.1275 56.7479C96.5071 58.3801 98.2156 59.7028 100.141 60.6294C102.067 61.556 104.167 62.0657 106.303 62.1252C108.781 62.1252 111.715 61.0622 111.715 57.9835C111.715 54.9049 108.871 54.0351 102.631 52.4613C96.3908 50.8874 89.3292 47.5465 89.3292 38.49C89.3292 27.0314 99.6075 22.4065 108.319 22.4065C115.111 22.4065 122.173 24.7189 126.666 29.1505L118.424 38.1449Z" fill="#010101"/>
<path d="M144.641 61.1588C133.134 61.1588 129.283 71.7477 129.283 71.7477C129.283 71.7477 133.134 82.3366 144.641 82.3366C156.148 82.3366 160 71.7477 160 71.7477C160 71.7477 156.141 61.1588 144.641 61.1588ZM144.641 78.761C143.254 78.761 141.898 78.3496 140.745 77.579C139.592 76.8084 138.693 75.7131 138.162 74.4316C137.631 73.1501 137.492 71.7399 137.763 70.3795C138.033 69.0191 138.701 67.7694 139.682 66.7886C140.663 65.8078 141.913 65.1398 143.273 64.8692C144.634 64.5986 146.044 64.7375 147.325 65.2683C148.607 65.7991 149.702 66.698 150.473 67.8514C151.243 69.0047 151.655 70.3606 151.655 71.7477C151.655 73.6077 150.916 75.3916 149.6 76.7068C148.285 78.0221 146.501 78.761 144.641 78.761Z" fill="#010101"/>
<path d="M144.641 76.2C147.1 76.2 149.094 74.2067 149.094 71.7477C149.094 69.2888 147.1 67.2954 144.641 67.2954C142.182 67.2954 140.189 69.2888 140.189 71.7477C140.189 74.2067 142.182 76.2 144.641 76.2Z" fill="#010101"/>
</g>
<defs>
<clipPath id="clip0_120_62">
<rect width="160" height="82.3366" fill="white"/>
</clipPath>
</defs>
</svg>
